# WaveFront *.obj file (generated by CINEMA 4D)

v -100 -100 -100
v -100 100 100
v 100 -100 -100
v 100 100 -100
v 100 -100 100
v 100 100 100
v -100 -100 100
v -140.86968994140625 3.59999990463257 100
# 8 vertices

vn 0 -1 0
vn 0 0 0
vn 1 0 0
vn 0 0 1
vn 0 0 1
# 5 normals

vt 0 0 0
vt 0 1 0
vt 1 1 0
vt 1 0 0
vt 1 0.51800000667572 0
# 5 texture coordinates

o Cube
usemtl default
f 7/1/1 1/2/1 3/3/1
f 3/1/3 4/2/3 6/3/3
f 5/1/4 6/2/5 2/3/4
f 7/1/1 3/3/1 5/4/1
f 3/1/3 6/3/3 5/4/3
f 5/1/4 2/3/4 8/5/4 7/4/4

